{
  "port": 8080,
  "noAuth": false,
  "baseURL": "",
  "address": "0.0.0.0",
  "alternativeReCaptcha": false,
  "reCaptchaKey": "",
  "reCaptchaSecret": "",
  "database": "./filebrowser.db",
  "log": "stdout",
  "plugin": "",
  "scope": ".",
  "root": ".",
  "allowCommands": false,
  "allowEdit": true,
  "allowNew": true,
  "commands": [
    "ls",
    "df"
  ]
}
